<?xml version="1.0" encoding="UTF-8"?>
<svg width="25px" height="25px" viewBox="0 0 25 25" version="1.1" xmlns="http://www.w3.org/2000/svg" xmlns:xlink="http://www.w3.org/1999/xlink">
    <!-- Generator: Sketch 47 (45396) - http://www.bohemiancoding.com/sketch -->
    <title>icon đặt hẹn</title>
    <desc>Created with Sketch.</desc>
    <defs></defs>
    <g id="Page-1" stroke="none" stroke-width="1" fill="none" fill-rule="evenodd">
        <g id="01.Trang-chủ-1" transform="translate(-28.000000, -193.000000)" fill="#89B263">
            <g id="Menu-dọc" transform="translate(0.000000, 101.000000)">
                <g id="Đặt-hẹn" transform="translate(0.000000, 76.000000)">
                    <g id="icon-đặt-hẹn" transform="translate(28.000000, 16.000000)">
                        <path d="M12.4639239,13.9012533 C11.903622,13.9000722 11.4181234,13.5567651 11.1798688,13.0360958 C11.1100525,12.883668 10.978622,12.7277625 10.8343307,12.6460696 C9.54220472,11.9141798 8.23452756,11.2093898 6.94843832,10.4671982 C6.73341207,10.3430512 6.53846457,10.1023031 6.44450131,9.87067585 C6.32350394,9.57257874 6.42540682,9.25984908 6.70329396,9.05512467 C7.00145669,8.8353084 7.32534121,8.80473097 7.65670604,8.98832677 C8.54496063,9.48051837 9.43262467,9.97389108 10.3204856,10.4668045 C10.7501444,10.7053215 11.174357,10.9545997 11.612874,11.175269 C11.7312467,11.2347835 11.8930577,11.2164764 12.0351181,11.2183793 C12.3143176,11.2220538 12.5937795,11.2202165 12.8727822,11.2100459 C13.0344619,11.2041404 13.2208793,11.2248097 13.3527034,11.1534186 C14.6296063,10.4614895 15.8952887,9.74895669 17.1699606,9.05295932 C17.3366929,8.96194882 17.5346588,8.8872769 17.7206824,8.88110892 C18.1021129,8.86844488 18.4172703,9.12540026 18.5038189,9.45919291 C18.6021129,9.83832677 18.443189,10.2198228 18.0700919,10.4287467 C16.7649081,11.1598491 15.4514567,11.8763845 14.1513255,12.6163451 C13.9803281,12.7135892 13.8254724,12.893248 13.7371522,13.0713976 C13.4889239,13.5725131 13.0151706,13.9024344 12.4639239,13.9012533" id="Fill-4"></path>
                        <path d="M17.0978543,21.1903543 C16.9363714,20.9083333 16.7885367,20.6438976 16.6345341,20.3830052 C16.5101903,20.1723097 16.4573688,19.9580709 16.7042848,19.8146325 C16.9508071,19.6715223 17.1143241,19.8265092 17.2363058,20.0341207 C17.3896522,20.2950787 17.5416207,20.5568898 17.6926706,20.8158136 C18.6034318,20.3647638 20.1231168,18.8869423 20.6090748,17.9854987 C20.2802034,17.7942913 19.9387992,17.6197507 19.6258071,17.403937 C19.4649147,17.292979 19.3062533,17.1284777 19.2331562,16.952231 C19.1301378,16.7037402 19.2207546,16.4549213 19.4379462,16.2778871 C19.6678018,16.0905512 19.9251509,16.0883858 20.1749541,16.221916 C20.5485761,16.4217848 20.912815,16.6393045 21.2907677,16.8548556 C21.9115026,15.5839895 22.2466732,14.2683727 22.2901772,12.8467848 C21.9718701,12.8467848 21.678563,12.8435696 21.3853215,12.8477034 C21.1286942,12.8513123 20.8971325,12.7839239 20.8987073,12.4902887 C20.9002822,12.1899606 21.1458858,12.1430446 21.3945735,12.1439633 C21.6870932,12.1449475 21.9795472,12.1442257 22.2900459,12.1442257 C22.2290879,10.7343832 21.9051378,9.43694226 21.2891273,8.1902231 C20.9452953,8.38858268 20.6164239,8.582021 20.2841404,8.7691601 C19.8594685,9.00846457 19.4797441,8.94041995 19.2840748,8.59566929 C19.0878806,8.24993438 19.215899,7.88005249 19.6242979,7.63523622 C19.9512008,7.43930446 20.2827625,7.25104987 20.6118307,7.05971129 C20.0786286,6.10925197 18.6103215,4.6910105 17.6464764,4.19619423 C17.4836155,4.47670604 17.323248,4.76049869 17.1550722,5.03969816 C17.0389961,5.23254593 16.8657677,5.32427822 16.6572375,5.20715223 C16.4447047,5.08772966 16.445164,4.89389764 16.555269,4.69645669 C16.7146522,4.41076115 16.8779068,4.12729659 17.0390617,3.8437664 C16.1106496,3.2496063 14.0095997,2.6664042 13.141752,2.757021 C13.1365026,2.77775591 13.1267257,2.7984252 13.1266601,2.81909449 C13.1248228,3.15807087 13.125479,3.49711286 13.1230512,3.83608924 C13.119311,4.35301837 12.8838123,4.64822835 12.4744948,4.65262467 C12.0627493,4.65688976 11.8155709,4.36036745 11.8115682,3.8507874 C11.8087467,3.48103675 11.8111089,3.11128609 11.8111089,2.71948819 C10.391227,2.80905512 9.08886483,3.18490814 7.83604331,3.85643045 C7.99877297,4.14055118 8.14700131,4.40498688 8.30093832,4.66607612 C8.425479,4.87729659 8.47561024,5.09192913 8.22862861,5.2339895 C7.98125328,5.37631234 7.81917979,5.21791339 7.6969357,5.01174541 C7.54280184,4.7515748 7.38978346,4.49074803 7.23761811,4.23267717 C6.30172572,4.70734908 4.76852362,6.20255906 4.32856299,7.06535433 C4.64805118,7.25026247 4.97029528,7.43313648 5.28886483,7.62204724 C5.71780184,7.87637795 5.85211942,8.25065617 5.64641076,8.60249344 C5.44713255,8.94330709 5.07075459,9.00616798 4.64358924,8.76515748 C4.31229003,8.57821522 3.98387795,8.38628609 3.64398294,8.19081365 C3.01990157,9.46161417 2.69017717,10.7786745 2.64345801,12.2003281 C2.96143701,12.2003281 3.25474409,12.2045276 3.54785433,12.1990814 C3.80362861,12.194357 4.03669948,12.2535433 4.03774934,12.5504593 C4.03879921,12.8505906 3.7977231,12.9036745 3.54739501,12.9030184 C3.24654199,12.9022966 2.94568898,12.9028871 2.64240814,12.9028871 C2.71032152,14.3203412 3.02954724,15.6133202 3.64457349,16.855315 C3.9555315,16.677231 4.25730315,16.5044619 4.55887795,16.3315617 C5.06242126,16.0430446 5.42843176,16.0827428 5.64785433,16.4498688 C5.86320866,16.8102362 5.71032152,17.176706 5.22685696,17.459252 C4.92600394,17.635105 4.62515092,17.8110892 4.30684383,17.9972441 C5.09739501,19.1708005 6.07561024,20.1152231 7.27770997,20.8696194 C7.44385171,20.5816273 7.60028215,20.3083333 7.75894357,20.0362861 C7.87770997,19.8327428 8.04995407,19.7152887 8.27482283,19.8397638 C8.5051378,19.9671916 8.4828937,20.1712598 8.3641273,20.3773622 C8.2063189,20.651378 8.05225066,20.9274934 7.88558399,21.221916 C9.12167323,21.8643045 10.409731,22.2450787 11.8111745,22.3259843 C11.8111745,21.9105643 11.8064501,21.5290026 11.8123556,21.1476378 C11.8196391,20.6844488 12.0678675,20.3998688 12.4576312,20.3944882 C12.8499541,20.3891732 13.1084186,20.6730315 13.1224606,21.1285433 C13.1267913,21.2706037 13.1233793,21.4128609 13.1233793,21.5550525 L13.1233793,22.3313648 C14.5543504,22.2295276 15.8525131,21.8620079 17.0978543,21.1903543 M13.1233793,24.990748 L11.8110433,24.990748 C11.4550722,24.9466535 11.0985105,24.9067585 10.7431955,24.8577428 C8.40139764,24.5349738 6.31130577,23.6160761 4.50900919,22.0994094 C2.13072835,20.0980315 0.663536745,17.5545932 0.170885827,14.4702756 C0.102447507,14.0419291 0.0563845144,13.6100394 1.96850394e-05,13.1797244 L1.96850394e-05,11.8673885 C0.0440485564,11.512336 0.0817782152,11.1562992 0.133090551,10.8022966 C0.597198163,7.60111549 2.07370735,4.94435696 4.56662073,2.90511811 C7.37147638,0.610826772 10.6159646,-0.30019685 14.2149147,0.197703412 C17.4059908,0.639238845 20.0500853,2.13569554 22.0822375,4.61870079 C24.3854528,7.43300525 25.2839436,10.6866142 24.7928018,14.2988845 C24.4758071,16.62979 23.5422769,18.7072178 22.0281037,20.4996719 C20.020164,22.8764436 17.4709514,24.3351706 14.3859121,24.826378 C13.9669488,24.8931102 13.544311,24.9365486 13.1233793,24.990748" id="Fill-1"></path>
                    </g>
                </g>
            </g>
        </g>
    </g>
</svg>