<?xml version="1.0" encoding="UTF-8"?>
<svg width="30px" height="30px" viewBox="0 0 30 30" version="1.1" xmlns="http://www.w3.org/2000/svg" xmlns:xlink="http://www.w3.org/1999/xlink">
    <!-- Generator: Sketch 47 (45396) - http://www.bohemiancoding.com/sketch -->
    <title>Fill 1</title>
    <desc>Created with Sketch.</desc>
    <defs></defs>
    <g id="Symbols" stroke="none" stroke-width="1" fill="none" fill-rule="evenodd">
        <g id="Footer" transform="translate(-227.000000, -894.000000)" stroke-width="0.5" stroke="#89B263" fill="#89B263">
            <g id="Group">
                <g id="Footer">
                    <g id="icon-facebook" transform="translate(228.000000, 895.000000)">
                        <path d="M1.66768872,13.954137 C1.68958755,20.7206584 7.20351751,26.2209697 13.9523891,26.2086584 C20.7165136,26.1963471 26.2119222,20.6994133 26.2205292,13.9373588 C26.2290272,7.16745998 20.6656342,1.61790356 13.9082646,1.65581796 C7.13204669,1.6938413 1.64578988,7.20602807 1.66768872,13.954137 M15.1439689,27.8792888 L12.7470817,27.8792888 C12.6269105,27.8468218 12.5084825,27.7977946 12.3861323,27.784067 C6.72708171,27.1457324 2.05947082,23.1831331 0.526988327,17.6808608 C0.294817121,16.8470709 0.172902724,15.9824483 0,15.1322071 L0,12.735211 C0.0453229572,12.4691565 0.0948949416,12.2037557 0.135424125,11.9368296 C1.31905058,4.13463508 8.50045136,-1.08752835 16.2864125,0.193063092 C22.5976342,1.23113313 27.291284,6.42126543 27.8622879,12.993639 C28.3906926,19.0763938 24.4166537,25.1079425 18.5180233,27.0912576 C17.4282023,27.4575456 16.2703969,27.6217324 15.1439689,27.8792888" id="Fill-1"></path>
                    </g>
                </g>
            </g>
        </g>
    </g>
</svg>