<?xml version="1.0" encoding="UTF-8"?>
<svg width="22px" height="22px" viewBox="0 0 22 22" version="1.1" xmlns="http://www.w3.org/2000/svg" xmlns:xlink="http://www.w3.org/1999/xlink">
    <!-- Generator: Sketch 47 (45396) - http://www.bohemiancoding.com/sketch -->
    <title>Shape</title>
    <desc>Created with Sketch.</desc>
    <defs></defs>
    <g id="Page-1" stroke="none" stroke-width="1" fill="none" fill-rule="evenodd">
        <g id="01.Trang-chủ-1" transform="translate(-29.000000, -118.000000)" fill-rule="nonzero" fill="#89B263">
            <g id="Menu-dọc" transform="translate(0.000000, 101.000000)">
                <g id="Tìm-kiếm-Active">
                    <path d="M44.7232704,30.836478 L43.7295597,30.836478 L43.3773585,30.4968553 C44.6100629,29.0628931 45.3522013,27.2012579 45.3522013,25.1761006 C45.3522013,20.6603774 41.6918239,17 37.1761006,17 C32.6603774,17 29,20.6603774 29,25.1761006 C29,29.6918239 32.6603774,33.3522013 37.1761006,33.3522013 C39.2012579,33.3522013 41.0628931,32.6100629 42.4968553,31.3773585 L42.836478,31.7295597 L42.836478,32.7232704 L49.1257862,39 L51,37.1257862 L44.7232704,30.836478 Z M37.1761006,30.836478 C34.0440252,30.836478 31.5157233,28.3081761 31.5157233,25.1761006 C31.5157233,22.0440252 34.0440252,19.5157233 37.1761006,19.5157233 C40.3081761,19.5157233 42.836478,22.0440252 42.836478,25.1761006 C42.836478,28.3081761 40.3081761,30.836478 37.1761006,30.836478 Z" id="Shape"></path>
                </g>
            </g>
        </g>
    </g>
</svg>